…
# enrichment with Precision-Recall method
enrichmentResult <- precRecall(scores = ermineInputGeneScores, 
                               scoreColumn = 2, # scores 
                               bigIsBetter = TRUE, # rank large logFC higher
                               annotation = "Generic_human", # ermineR Generic_human annotation file
                               aspects = "B", # biological processes 
                               iterations = 10000, # 10K sampling iterations so results are stable
                               geneSetDescription = "GO.xml") # GO XML file


# arrange results by MFP value
enrichmentResult$results %>% arrange(MFPvalue)
```

    ## # A tibble: 3,494 x 12
    ##    Name  ID    NumProbes NumGenes RawScore    Pval CorrectedPvalue MFPvalue
    ##    <chr> <chr>     <dbl>    <dbl>    <dbl>   <dbl>           <dbl>    <dbl>
    ##  1 posi~ GO:2~        62       62   0.0225 0.0001            0.335   0.0001
    ##  2 nucl~ GO:0~        36       36   0.0308 0.0004            0.670   0.0002
    ##  3 erro~ GO:0~        20       20   0.0517 0.0008            0.893   0.0008
    ##  4 tran~ GO:0~        72       72   0.0197 0.0008            0.670   0.0008
    ##  5 DNA ~ GO:0~       191      191   0.0194 0.00120           0.804   0.001 
    ##  6 regu~ GO:2~       102      102   0.0178 0.0013            0.726   0.0011
    ##  7 thyr~ GO:0~        21       21   0.0458 0.0014            0.670   0.0014
    ##  8 telo~ GO:0~        22       22   0.0473 0.0014            0.586   0.0014
    ##  9 nucl~ GO:0~        36       36   0.0302 0.0017            0.633   0.0017
    ## 10 telo~ GO:0~        93       93   0.0170 0.0027            0.476   0.0017
    ## # ... with 3,484 more rows, and 4 more variables: CorrectedMFPvalue <dbl>,
    ## #   Multifunctionality <dbl>, `Same as` <chr>, GeneMembers <chr>
…
